Send help! I'm trapped in a loading message factory!
                                                                                 :)
Loading paralap... parallepi.. para... cube.
                                                                                 :)
Cake is a lie.
                                                                                 :)
Installing stuxnet.5.1.4 and all dependencies from "http://www.trojan-world.com".
                                                                                 :)
Sending personal informations to NSA server.
                                                                                 :)
